module gitlab.com/go-course-project/go15

go 1.22.0

require (
	github.com/caarlos0/env/v6 v6.10.1
	github.com/go-playground/assert/v2 v2.2.0
	github.com/go-playground/validator/v10 v10.20.0
	golang.org/x/crypto v0.23.0
	gopkg.in/yaml.v3 v3.0.1
	gorm.io/driver/mysql v1.5.6
	gorm.io/gorm v1.25.10
)

require (
	github.com/gabriel-vasile/mimetype v1.4.4 // indirect
	github.com/go-playground/locales v0.14.1 // indirect
	github.com/go-playground/universal-translator v0.18.1 // indirect
	github.com/go-sql-driver/mysql v1.7.0 // indirect
	github.com/jinzhu/inflection v1.0.0 // indirect
	github.com/jinzhu/now v1.1.5 // indirect
	github.com/leodido/go-urn v1.4.0 // indirect
	golang.org/x/net v0.25.0 // indirect
	golang.org/x/sys v0.20.0 // indirect
	golang.org/x/text v0.15.0 // indirect
)
